# 3ds Max Wavefront OBJ Exporter v0.97b - (c)2007 guruware
# File Created: 17.01.2013 09:23:26

mtllib player.mtl

#
# object default
#

v  0.0000 0.0000 0.0000
v  256.0000 0.0000 0.0000
v  256.0000 256.0000 0.0000
v  0.0000 256.0000 0.0000
# 4 vertices

vn 0.0000 0.0000 -1.0000
vn 0.0000 0.0000 -1.0000
vn 0.0000 0.0000 -1.0000
vn 0.0000 0.0000 -1.0000
# 4 vertex normals

vt 0.0000 0.0000 0.0000
vt 1.0000 0.0000 0.0000
vt 1.0000 1.0000 0.0000
vt 0.0000 1.0000 0.0000
# 4 vertex textures

g default
usemtl default
f 1/1/1 2/2/2 3/3/3 
f 1/1/1 3/3/3 4/4/4
# 2 faces

